# system info AltClkCtrl on 2017.04.07.14:11:55
system_info:
name,value
DEVICE,5AGXMB1G4F40C4
DEVICE_FAMILY,Arria V
GENERATION_ID,1491567115
#
#
# Files generated for AltClkCtrl on 2017.04.07.14:11:55
files:
filepath,kind,attributes,module,is_top
simulation/AltClkCtrl.v,VERILOG,,AltClkCtrl,true
simulation/submodules/AltClkCtrl_altclkctrl_0.v,VERILOG,,AltClkCtrl_altclkctrl_0,false
#
# Map from instance-path to kind of module
instances:
instancePath,module
AltClkCtrl.altclkctrl_0,AltClkCtrl_altclkctrl_0
